upsampling/upsampling2/tb_ctrl.vcd
$date
	Thu Jan 15 14:40:40 2026
$end
$version
	Icarus Verilog
$end
$timescale
	1s
$end
$scope module tb_ctrl $end
$var wire 4 ! write_mode [3:0] $end
$var wire 1 " en_write_out $end
$var wire 1 # en_write_in $end
$var wire 1 $ done $end
$var wire 14 % addr_output [13:0] $end
$var wire 14 & addr_input [13:0] $end
$var reg 1 ' clk $end
$var reg 1 ( rst $end
$var reg 3 ) size_upsample [2:0] $end
$var reg 1 * start $end
$scope module uut $end
$var wire 1 ' clk $end
$var wire 1 ( rst $end
$var wire 3 + size_upsample [2:0] $end
$var wire 1 * start $end
$var parameter 6 , DONE $end
$var parameter 6 - IDLE $end
$var parameter 6 . LOAD $end
$var parameter 6 / MODE1 $end
$var parameter 6 0 MODE2 $end
$var parameter 6 1 MODE3 $end
$var reg 6 2 NEXT_STATE [5:0] $end
$var reg 6 3 STATE [5:0] $end
$var reg 14 4 addr_input [13:0] $end
$var reg 14 5 addr_output [13:0] $end
$var reg 8 6 baris [7:0] $end
$var reg 8 7 batas_kolom [7:0] $end
$var reg 1 $ done $end
$var reg 1 8 en_counter $end
$var reg 1 # en_write_in $end
$var reg 1 " en_write_out $end
$var reg 8 9 kolom [7:0] $end
$var reg 4 : write_mode [3:0] $end
$upscope $end
$upscope $end
$enddefinitions $end
$comment Show the parameter values. $end
$dumpall
b100 1
b11 0
b10 /
b1 .
b0 -
b101 ,
$end
#0
$dumpvars
bx :
bx 9
x8
b111 7
bx 6
bx 5
b0xxxxxxxxxxxxx 4
bx 3
b0 2
b0 +
0*
b0 )
0(
0'
b0xxxxxxxxxxxxx &
bx %
x$
x#
x"
bx !
$end
#5
08
b0 !
b0 :
0"
0#
0$
b0 %
b0 5
b0 &
b0 4
b0 9
b1 6
b0 3
1'
#10
0'
#15
1'
1(
#20
0'
#25
b1 2
1'
1*
#30
0'
#35
1#
b1 3
b10 2
1'
0*
#40
0'
#45
18
1"
0#
b10 3
1'
#50
0'
#55
b1 !
b1 :
b1 %
b1 5
b1 9
1'
#60
0'
#65
b1 &
b1 4
b10 %
b10 5
b10 9
1'
#70
0'
#75
b11 %
b11 5
b11 9
1'
#80
0'
#85
b10 &
b10 4
b100 %
b100 5
b100 9
1'
#90
0'
#95
b101 %
b101 5
b101 9
1'
#100
0'
#105
b11 &
b11 4
b110 %
b110 5
b110 9
1'
#110
0'
#115
b11 2
b10 !
b10 :
b111 %
b111 5
b111 9
1'
#120
0'
#125
b11 !
b11 :
b100 &
b100 4
b10 6
b1000 %
b1000 5
b0 9
b11 3
1'
#130
0'
#135
b100 !
b100 :
b1001 %
b1001 5
b1 9
1'
#140
0'
#145
b101 &
b101 4
b1010 %
b1010 5
b10 9
1'
#150
0'
#155
b1011 %
b1011 5
b11 9
1'
#160
0'
#165
b110 &
b110 4
b1100 %
b1100 5
b100 9
1'
#170
0'
#175
b1101 %
b1101 5
b101 9
1'
#180
0'
#185
b111 &
b111 4
b1110 %
b1110 5
b110 9
1'
#190
0'
#195
b101 !
b101 :
b1111 %
b1111 5
b111 9
1'
#200
0'
#205
b11 !
b11 :
b1000 &
b1000 4
b11 6
b10000 %
b10000 5
b0 9
1'
#210
0'
#215
b100 !
b100 :
b10001 %
b10001 5
b1 9
1'
#220
0'
#225
b1001 &
b1001 4
b10010 %
b10010 5
b10 9
1'
#230
0'
#235
b10011 %
b10011 5
b11 9
1'
#240
0'
#245
b1010 &
b1010 4
b10100 %
b10100 5
b100 9
1'
#250
0'
#255
b10101 %
b10101 5
b101 9
1'
#260
0'
#265
b1011 &
b1011 4
b10110 %
b10110 5
b110 9
1'
#270
0'
#275
b101 !
b101 :
b10111 %
b10111 5
b111 9
1'
#280
0'
#285
b11 !
b11 :
b1100 &
b1100 4
b100 6
b11000 %
b11000 5
b0 9
1'
#290
0'
#295
b100 !
b100 :
b11001 %
b11001 5
b1 9
1'
#300
0'
#305
b1101 &
b1101 4
b11010 %
b11010 5
b10 9
1'
#310
0'
#315
b11011 %
b11011 5
b11 9
1'
#320
0'
#325
b1110 &
b1110 4
b11100 %
b11100 5
b100 9
1'
#330
0'
#335
b11101 %
b11101 5
b101 9
1'
#340
0'
#345
b1111 &
b1111 4
b11110 %
b11110 5
b110 9
1'
#350
0'
#355
b101 !
b101 :
b11111 %
b11111 5
b111 9
1'
#360
0'
#365
b11 !
b11 :
b10000 &
b10000 4
b101 6
b100000 %
b100000 5
b0 9
1'
#370
0'
#375
b100 !
b100 :
b100001 %
b100001 5
b1 9
1'
#380
0'
#385
b10001 &
b10001 4
b100010 %
b100010 5
b10 9
1'
#390
0'
#395
b100011 %
b100011 5
b11 9
1'
#400
0'
#405
b10010 &
b10010 4
b100100 %
b100100 5
b100 9
1'
#410
0'
#415
b100101 %
b100101 5
b101 9
1'
#420
0'
#425
b10011 &
b10011 4
b100110 %
b100110 5
b110 9
1'
#430
0'
#435
b101 !
b101 :
b100111 %
b100111 5
b111 9
1'
#440
0'
#445
b11 !
b11 :
b10100 &
b10100 4
b110 6
b101000 %
b101000 5
b0 9
1'
#450
0'
#455
b100 !
b100 :
b101001 %
b101001 5
b1 9
1'
#460
0'
#465
b10101 &
b10101 4
b101010 %
b101010 5
b10 9
1'
#470
0'
#475
b101011 %
b101011 5
b11 9
1'
#480
0'
#485
b10110 &
b10110 4
b101100 %
b101100 5
b100 9
1'
#490
0'
#495
b101101 %
b101101 5
b101 9
1'
#500
0'
#505
b10111 &
b10111 4
b101110 %
b101110 5
b110 9
1'
#510
0'
#515
b101 !
b101 :
b101111 %
b101111 5
b111 9
1'
#520
0'
#525
b11 !
b11 :
b11000 &
b11000 4
b111 6
b110000 %
b110000 5
b0 9
1'
#530
0'
#535
b100 !
b100 :
b110001 %
b110001 5
b1 9
1'
#540
0'
#545
b11001 &
b11001 4
b110010 %
b110010 5
b10 9
1'
#550
0'
#555
b110011 %
b110011 5
b11 9
1'
#560
0'
#565
b11010 &
b11010 4
b110100 %
b110100 5
b100 9
1'
#570
0'
#575
b110101 %
b110101 5
b101 9
1'
#580
0'
#585
b11011 &
b11011 4
b110110 %
b110110 5
b110 9
1'
#590
0'
#595
b100 2
b101 !
b101 :
b110111 %
b110111 5
b111 9
1'
#600
0'
#605
b110 !
b110 :
b11100 &
b11100 4
b1000 6
b111000 %
b111000 5
b0 9
b100 3
1'
#610
0'
#615
b111 !
b111 :
b111001 %
b111001 5
b1 9
1'
#620
0'
#625
b11101 &
b11101 4
b111010 %
b111010 5
b10 9
1'
#630
0'
#635
b111011 %
b111011 5
b11 9
1'
#640
0'
#645
b11110 &
b11110 4
b111100 %
b111100 5
b100 9
1'
#650
0'
#655
b111101 %
b111101 5
b101 9
1'
#660
0'
#665
b11111 &
b11111 4
b111110 %
b111110 5
b110 9
1'
#670
0'
#675
b101 2
b1000 !
b1000 :
b111111 %
b111111 5
b111 9
1'
#680
0'
#685
b0 2
0"
1$
b100000 &
b100000 4
b1001 6
b1000000 %
b1000000 5
b0 9
b101 3
1'
#690
0'
#695
08
b0 !
b0 :
b0 &
b0 4
0$
b0 %
b0 5
b1 9
b0 3
1'
